{
  "project_info": {
    "project_number": "741676400683",
    "project_id": "nguy3ntanduc",
    "storage_bucket": "nguy3ntanduc.appspot.com"
  },
  "client": [
    {
      "client_info": {
        "mobilesdk_app_id": "1:741676400683:android:ad81f72ca374131120aa6e",
        "android_client_info": {
          "package_name": "com.example.loginfirebase2"
        }
      },
      "oauth_client": [
        {
          "client_id": "741676400683-gfr7clle9vs6ief89192c08kgh2nj5mg.apps.googleusercontent.com",
          "client_type": 3
        }
      ],
      "api_key": [
        {
          "current_key": "AIzaSyAaCfLjVe4wN2mVD5POpCTOfVRIgc0zWFs"
        }
      ],
      "services": {
        "appinvite_service": {
          "other_platform_oauth_client": [
            {
              "client_id": "741676400683-gfr7clle9vs6ief89192c08kgh2nj5mg.apps.googleusercontent.com",
              "client_type": 3
            }
          ]
        }
      }
    }
  ],
  "configuration_version": "1"
}